mux_2x1_8bit/simulation/qsim/mux_2x1_8bit.msim.vcd
$comment
	File created using the following command:
		vcd file mux_2x1_8bit.msim.vcd -direction
$end
$date
	Sat Nov 22 01:00:18 2025
$end
$version
	ModelSim Version 10.1d
$end
$timescale
	1ps
$end
$scope module mux_2x1_8bit_vlg_vec_tst $end
$var reg 8 ! reg_x [7:0] $end
$var reg 8 " reg_y [7:0] $end
$var reg 1 # select_m $end
$var wire 1 $ d [7] $end
$var wire 1 % d [6] $end
$var wire 1 & d [5] $end
$var wire 1 ' d [4] $end
$var wire 1 ( d [3] $end
$var wire 1 ) d [2] $end
$var wire 1 * d [1] $end
$var wire 1 + d [0] $end
$var wire 1 , sampler $end
$scope module i1 $end
$var wire 1 - gnd $end
$var wire 1 . vcc $end
$var wire 1 / unknown $end
$var tri1 1 0 devclrn $end
$var tri1 1 1 devpor $end
$var tri1 1 2 devoe $end
$var wire 1 3 select_m~combout $end
$var wire 1 4 d~0_combout $end
$var wire 1 5 d~1_combout $end
$var wire 1 6 d~2_combout $end
$var wire 1 7 d~3_combout $end
$var wire 1 8 d~4_combout $end
$var wire 1 9 d~5_combout $end
$var wire 1 : d~6_combout $end
$var wire 1 ; d~7_combout $end
$var wire 1 < reg_y~combout [7] $end
$var wire 1 = reg_y~combout [6] $end
$var wire 1 > reg_y~combout [5] $end
$var wire 1 ? reg_y~combout [4] $end
$var wire 1 @ reg_y~combout [3] $end
$var wire 1 A reg_y~combout [2] $end
$var wire 1 B reg_y~combout [1] $end
$var wire 1 C reg_y~combout [0] $end
$var wire 1 D reg_x~combout [7] $end
$var wire 1 E reg_x~combout [6] $end
$var wire 1 F reg_x~combout [5] $end
$var wire 1 G reg_x~combout [4] $end
$var wire 1 H reg_x~combout [3] $end
$var wire 1 I reg_x~combout [2] $end
$var wire 1 J reg_x~combout [1] $end
$var wire 1 K reg_x~combout [0] $end
$upscope $end
$upscope $end
$enddefinitions $end
#0
$dumpvars
b10101010 !
b1010101 "
0#
0+
1*
0)
1(
0'
1&
0%
1$
x,
0-
1.
x/
10
11
12
03
04
15
06
17
08
19
0:
1;
1C
0B
1A
0@
1?
0>
1=
0<
0K
1J
0I
1H
0G
1F
0E
1D
$end
#100000
1#
13
0,
0;
1:
09
18
07
16
05
14
0$
1%
0&
1'
0(
1)
0*
1+
#200000
0#
03
1,
1;
0:
19
08
17
06
15
04
1$
0%
1&
0'
1(
0)
1*
0+
#300000
1#
13
0,
0;
1:
09
18
07
16
05
14
0$
1%
0&
1'
0(
1)
0*
1+
#400000
0#
03
1,
1;
0:
19
08
17
06
15
04
1$
0%
1&
0'
1(
0)
1*
0+
#500000
1#
13
0,
0;
1:
09
18
07
16
05
14
0$
1%
0&
1'
0(
1)
0*
1+
#600000
0#
03
1,
1;
0:
19
08
17
06
15
04
1$
0%
1&
0'
1(
0)
1*
0+
#700000
1#
13
0,
0;
1:
09
18
07
16
05
14
0$
1%
0&
1'
0(
1)
0*
1+
#800000
0#
03
1,
1;
0:
19
08
17
06
15
04
1$
0%
1&
0'
1(
0)
1*
0+
#900000
1#
13
0,
0;
1:
09
18
07
16
05
14
0$
1%
0&
1'
0(
1)
0*
1+
