rom_3x16/simulation/qsim/rom_3x16.msim.vcd
$comment
	File created using the following command:
		vcd file rom_3x16.msim.vcd -direction
$end
$date
	Sat Nov 22 20:04:58 2025
$end
$version
	ModelSim Version 10.1d
$end
$timescale
	1ps
$end
$scope module rom_3x16_vlg_vec_tst $end
$var reg 2 ! adress [1:0] $end
$var wire 1 " dado_out [15] $end
$var wire 1 # dado_out [14] $end
$var wire 1 $ dado_out [13] $end
$var wire 1 % dado_out [12] $end
$var wire 1 & dado_out [11] $end
$var wire 1 ' dado_out [10] $end
$var wire 1 ( dado_out [9] $end
$var wire 1 ) dado_out [8] $end
$var wire 1 * dado_out [7] $end
$var wire 1 + dado_out [6] $end
$var wire 1 , dado_out [5] $end
$var wire 1 - dado_out [4] $end
$var wire 1 . dado_out [3] $end
$var wire 1 / dado_out [2] $end
$var wire 1 0 dado_out [1] $end
$var wire 1 1 dado_out [0] $end
$var wire 1 2 sampler $end
$scope module i1 $end
$var wire 1 3 gnd $end
$var wire 1 4 vcc $end
$var wire 1 5 unknown $end
$var tri1 1 6 devclrn $end
$var tri1 1 7 devpor $end
$var tri1 1 8 devoe $end
$var wire 1 9 Mux1~0_combout $end
$var wire 1 : Mux0~0_combout $end
$var wire 1 ; adress~combout [1] $end
$var wire 1 < adress~combout [0] $end
$upscope $end
$upscope $end
$enddefinitions $end
#0
$dumpvars
b11 !
01
00
0/
0.
0-
0,
0+
0*
0)
0(
0'
0&
0%
0$
0#
0"
x2
03
14
x5
16
17
18
19
0:
1<
1;
$end
#50000
b1 !
b0 !
0<
0;
02
09
11
1.
1-
1+
1*
1)
1%
1$
10
#100000
b10 !
b11 !
1<
1;
12
19
01
0.
0-
0+
0*
0)
0%
0$
00
#150000
b1 !
b0 !
0<
0;
02
09
11
1.
1-
1+
1*
1)
1%
1$
10
#200000
b10 !
b11 !
1<
1;
12
19
01
0.
0-
0+
0*
0)
0%
0$
00
#250000
b1 !
b0 !
0<
0;
02
09
11
1.
1-
1+
1*
1)
1%
1$
10
#300000
b10 !
b11 !
1<
1;
12
19
01
0.
0-
0+
0*
0)
0%
0$
00
#350000
b1 !
b0 !
0<
0;
02
09
11
1.
1-
1+
1*
1)
1%
1$
10
#400000
b10 !
b11 !
1<
1;
12
19
01
0.
0-
0+
0*
0)
0%
0$
00
#450000
b1 !
b0 !
0<
0;
02
09
11
1.
1-
1+
1*
1)
1%
1$
10
#500000
b10 !
b11 !
1<
1;
12
19
01
0.
0-
0+
0*
0)
0%
0$
00
#550000
b1 !
b0 !
0<
0;
02
09
11
1.
1-
1+
1*
1)
1%
1$
10
#600000
b10 !
b11 !
1<
1;
12
19
01
0.
0-
0+
0*
0)
0%
0$
00
#650000
b1 !
b0 !
0<
0;
02
09
11
1.
1-
1+
1*
1)
1%
1$
10
#700000
b10 !
b11 !
1<
1;
12
19
01
0.
0-
0+
0*
0)
0%
0$
00
#750000
b1 !
b0 !
0<
0;
02
09
11
1.
1-
1+
1*
1)
1%
1$
10
#800000
b10 !
b11 !
1<
1;
12
19
01
0.
0-
0+
0*
0)
0%
0$
00
#850000
b1 !
b0 !
0<
0;
02
09
11
1.
1-
1+
1*
1)
1%
1$
10
#900000
b10 !
b11 !
1<
1;
12
19
01
0.
0-
0+
0*
0)
0%
0$
00
#950000
b1 !
b0 !
0<
0;
02
09
11
1.
1-
1+
1*
1)
1%
1$
10
