register_8/simulation/qsim/register_8.msim.vcd
$comment
	File created using the following command:
		vcd file register_8.msim.vcd -direction
$end
$date
	Sat Nov 22 12:21:41 2025
$end
$version
	ModelSim Version 10.1d
$end
$timescale
	1ps
$end
$scope module register_8_vlg_vec_tst $end
$var reg 1 ! clk $end
$var reg 8 " D [7:0] $end
$var reg 1 # load $end
$var reg 1 $ rst $end
$var wire 1 % Q [7] $end
$var wire 1 & Q [6] $end
$var wire 1 ' Q [5] $end
$var wire 1 ( Q [4] $end
$var wire 1 ) Q [3] $end
$var wire 1 * Q [2] $end
$var wire 1 + Q [1] $end
$var wire 1 , Q [0] $end
$var wire 1 - sampler $end
$scope module i1 $end
$var wire 1 . gnd $end
$var wire 1 / vcc $end
$var wire 1 0 unknown $end
$var tri1 1 1 devclrn $end
$var tri1 1 2 devpor $end
$var tri1 1 3 devoe $end
$var wire 1 4 clk~combout $end
$var wire 1 5 clk~clkctrl_outclk $end
$var wire 1 6 rst~combout $end
$var wire 1 7 rst~clkctrl_outclk $end
$var wire 1 8 load~combout $end
$var wire 1 9 Q[0]~reg0_regout $end
$var wire 1 : Q[1]~reg0_regout $end
$var wire 1 ; Q[2]~reg0_regout $end
$var wire 1 < Q[3]~reg0feeder_combout $end
$var wire 1 = Q[3]~reg0_regout $end
$var wire 1 > Q[4]~reg0feeder_combout $end
$var wire 1 ? Q[4]~reg0_regout $end
$var wire 1 @ Q[5]~reg0feeder_combout $end
$var wire 1 A Q[5]~reg0_regout $end
$var wire 1 B Q[6]~reg0_regout $end
$var wire 1 C Q[7]~reg0feeder_combout $end
$var wire 1 D Q[7]~reg0_regout $end
$var wire 1 E D~combout [7] $end
$var wire 1 F D~combout [6] $end
$var wire 1 G D~combout [5] $end
$var wire 1 H D~combout [4] $end
$var wire 1 I D~combout [3] $end
$var wire 1 J D~combout [2] $end
$var wire 1 K D~combout [1] $end
$var wire 1 L D~combout [0] $end
$upscope $end
$upscope $end
$enddefinitions $end
#0
$dumpvars
0!
b100100 "
0#
0$
0,
0+
0*
0)
0(
0'
0&
0%
x-
0.
1/
x0
11
12
13
04
05
06
07
08
09
0:
0;
0<
0=
0>
0?
1@
0A
0B
0C
0D
0L
0K
1J
0I
0H
1G
0F
0E
$end
#125000
1$
16
17
0-
#250000
1!
1#
0$
14
18
06
07
15
1-
1A
1;
1'
1*
#375000
1$
16
17
0-
0A
0;
0'
0*
#500000
0!
0#
0$
04
08
06
07
05
1-
#625000
1$
16
17
0-
#750000
1!
1#
0$
14
18
06
07
15
1-
1A
1;
1'
1*
#875000
1$
16
17
0-
0A
0;
0'
0*
