mux_4x1_24bit/simulation/qsim/mux_4x1_24bit.msim.vcd
$comment
	File created using the following command:
		vcd file mux_4x1_24bit.msim.vcd -direction
$end
$date
	Sat Nov 22 01:09:36 2025
$end
$version
	ModelSim Version 10.1d
$end
$timescale
	1ps
$end
$scope module mux_4x1_24bit_vlg_vec_tst $end
$var reg 24 ! reg_1 [23:0] $end
$var reg 24 " reg_2 [23:0] $end
$var reg 24 # rom_in [23:0] $end
$var reg 2 $ select_sum [1:0] $end
$var wire 1 % d1 [23] $end
$var wire 1 & d1 [22] $end
$var wire 1 ' d1 [21] $end
$var wire 1 ( d1 [20] $end
$var wire 1 ) d1 [19] $end
$var wire 1 * d1 [18] $end
$var wire 1 + d1 [17] $end
$var wire 1 , d1 [16] $end
$var wire 1 - d1 [15] $end
$var wire 1 . d1 [14] $end
$var wire 1 / d1 [13] $end
$var wire 1 0 d1 [12] $end
$var wire 1 1 d1 [11] $end
$var wire 1 2 d1 [10] $end
$var wire 1 3 d1 [9] $end
$var wire 1 4 d1 [8] $end
$var wire 1 5 d1 [7] $end
$var wire 1 6 d1 [6] $end
$var wire 1 7 d1 [5] $end
$var wire 1 8 d1 [4] $end
$var wire 1 9 d1 [3] $end
$var wire 1 : d1 [2] $end
$var wire 1 ; d1 [1] $end
$var wire 1 < d1 [0] $end
$var wire 1 = sampler $end
$scope module i1 $end
$var wire 1 > gnd $end
$var wire 1 ? vcc $end
$var wire 1 @ unknown $end
$var tri1 1 A devclrn $end
$var tri1 1 B devpor $end
$var tri1 1 C devoe $end
$var wire 1 D d1~0_combout $end
$var wire 1 E d1~1_combout $end
$var wire 1 F d1~2_combout $end
$var wire 1 G d1~3_combout $end
$var wire 1 H d1~4_combout $end
$var wire 1 I d1~5_combout $end
$var wire 1 J d1~6_combout $end
$var wire 1 K d1~7_combout $end
$var wire 1 L d1~8_combout $end
$var wire 1 M d1~9_combout $end
$var wire 1 N d1~10_combout $end
$var wire 1 O d1~11_combout $end
$var wire 1 P d1~12_combout $end
$var wire 1 Q d1~13_combout $end
$var wire 1 R d1~14_combout $end
$var wire 1 S d1~15_combout $end
$var wire 1 T d1~16_combout $end
$var wire 1 U d1~17_combout $end
$var wire 1 V d1~18_combout $end
$var wire 1 W d1~19_combout $end
$var wire 1 X d1~20_combout $end
$var wire 1 Y d1~21_combout $end
$var wire 1 Z d1~22_combout $end
$var wire 1 [ d1~23_combout $end
$var wire 1 \ d1~24_combout $end
$var wire 1 ] d1~25_combout $end
$var wire 1 ^ d1~26_combout $end
$var wire 1 _ d1~27_combout $end
$var wire 1 ` d1~28_combout $end
$var wire 1 a d1~29_combout $end
$var wire 1 b d1~30_combout $end
$var wire 1 c d1~31_combout $end
$var wire 1 d d1~32_combout $end
$var wire 1 e d1~33_combout $end
$var wire 1 f d1~34_combout $end
$var wire 1 g d1~35_combout $end
$var wire 1 h d1~36_combout $end
$var wire 1 i d1~37_combout $end
$var wire 1 j d1~38_combout $end
$var wire 1 k d1~39_combout $end
$var wire 1 l d1~40_combout $end
$var wire 1 m d1~41_combout $end
$var wire 1 n d1~42_combout $end
$var wire 1 o d1~43_combout $end
$var wire 1 p d1~44_combout $end
$var wire 1 q d1~45_combout $end
$var wire 1 r d1~46_combout $end
$var wire 1 s d1~47_combout $end
$var wire 1 t reg_2~combout [23] $end
$var wire 1 u reg_2~combout [22] $end
$var wire 1 v reg_2~combout [21] $end
$var wire 1 w reg_2~combout [20] $end
$var wire 1 x reg_2~combout [19] $end
$var wire 1 y reg_2~combout [18] $end
$var wire 1 z reg_2~combout [17] $end
$var wire 1 { reg_2~combout [16] $end
$var wire 1 | reg_2~combout [15] $end
$var wire 1 } reg_2~combout [14] $end
$var wire 1 ~ reg_2~combout [13] $end
$var wire 1 !! reg_2~combout [12] $end
$var wire 1 "! reg_2~combout [11] $end
$var wire 1 #! reg_2~combout [10] $end
$var wire 1 $! reg_2~combout [9] $end
$var wire 1 %! reg_2~combout [8] $end
$var wire 1 &! reg_2~combout [7] $end
$var wire 1 '! reg_2~combout [6] $end
$var wire 1 (! reg_2~combout [5] $end
$var wire 1 )! reg_2~combout [4] $end
$var wire 1 *! reg_2~combout [3] $end
$var wire 1 +! reg_2~combout [2] $end
$var wire 1 ,! reg_2~combout [1] $end
$var wire 1 -! reg_2~combout [0] $end
$var wire 1 .! reg_1~combout [23] $end
$var wire 1 /! reg_1~combout [22] $end
$var wire 1 0! reg_1~combout [21] $end
$var wire 1 1! reg_1~combout [20] $end
$var wire 1 2! reg_1~combout [19] $end
$var wire 1 3! reg_1~combout [18] $end
$var wire 1 4! reg_1~combout [17] $end
$var wire 1 5! reg_1~combout [16] $end
$var wire 1 6! reg_1~combout [15] $end
$var wire 1 7! reg_1~combout [14] $end
$var wire 1 8! reg_1~combout [13] $end
$var wire 1 9! reg_1~combout [12] $end
$var wire 1 :! reg_1~combout [11] $end
$var wire 1 ;! reg_1~combout [10] $end
$var wire 1 <! reg_1~combout [9] $end
$var wire 1 =! reg_1~combout [8] $end
$var wire 1 >! reg_1~combout [7] $end
$var wire 1 ?! reg_1~combout [6] $end
$var wire 1 @! reg_1~combout [5] $end
$var wire 1 A! reg_1~combout [4] $end
$var wire 1 B! reg_1~combout [3] $end
$var wire 1 C! reg_1~combout [2] $end
$var wire 1 D! reg_1~combout [1] $end
$var wire 1 E! reg_1~combout [0] $end
$var wire 1 F! select_sum~combout [1] $end
$var wire 1 G! select_sum~combout [0] $end
$var wire 1 H! rom_in~combout [23] $end
$var wire 1 I! rom_in~combout [22] $end
$var wire 1 J! rom_in~combout [21] $end
$var wire 1 K! rom_in~combout [20] $end
$var wire 1 L! rom_in~combout [19] $end
$var wire 1 M! rom_in~combout [18] $end
$var wire 1 N! rom_in~combout [17] $end
$var wire 1 O! rom_in~combout [16] $end
$var wire 1 P! rom_in~combout [15] $end
$var wire 1 Q! rom_in~combout [14] $end
$var wire 1 R! rom_in~combout [13] $end
$var wire 1 S! rom_in~combout [12] $end
$var wire 1 T! rom_in~combout [11] $end
$var wire 1 U! rom_in~combout [10] $end
$var wire 1 V! rom_in~combout [9] $end
$var wire 1 W! rom_in~combout [8] $end
$var wire 1 X! rom_in~combout [7] $end
$var wire 1 Y! rom_in~combout [6] $end
$var wire 1 Z! rom_in~combout [5] $end
$var wire 1 [! rom_in~combout [4] $end
$var wire 1 \! rom_in~combout [3] $end
$var wire 1 ]! rom_in~combout [2] $end
$var wire 1 ^! rom_in~combout [1] $end
$var wire 1 _! rom_in~combout [0] $end
$upscope $end
$upscope $end
$enddefinitions $end
#0
$dumpvars
b100000000000 !
b100000000000000000000001 "
b100000000100000000000 #
b0 $
0<
0;
0:
09
08
07
06
05
04
03
02
11
00
0/
0.
0-
0,
0+
0*
0)
0(
0'
0&
0%
x=
0>
1?
x@
1A
1B
1C
0D
0E
0F
0G
0H
0I
0J
0K
0L
0M
0N
0O
0P
0Q
0R
0S
0T
0U
0V
0W
0X
0Y
1Z
1[
0\
0]
0^
0_
0`
0a
0b
0c
0d
0e
0f
0g
0h
0i
0j
0k
0l
0m
0n
0o
0p
0q
0r
0s
1-!
0,!
0+!
0*!
0)!
0(!
0'!
0&!
0%!
0$!
0#!
0"!
0!!
0~
0}
0|
0{
0z
0y
0x
0w
0v
0u
1t
0E!
0D!
0C!
0B!
0A!
0@!
0?!
0>!
0=!
0<!
0;!
1:!
09!
08!
07!
06!
05!
04!
03!
02!
01!
00!
0/!
0.!
0G!
0F!
0_!
0^!
0]!
0\!
0[!
0Z!
0Y!
0X!
0W!
0V!
0U!
1T!
0S!
0R!
0Q!
0P!
0O!
0N!
0M!
0L!
1K!
0J!
0I!
0H!
$end
#50000
b10 $
1F!
0=
1l
1m
1(
#100000
b11 $
b1 $
1G!
0F!
1=
1s
0l
0Z
1E
0m
0[
1%
1<
0(
01
#150000
b11 $
1F!
0=
0s
0E
0%
0<
#200000
b10 $
b0 $
0G!
0F!
1=
1Z
1[
11
#250000
b10 $
1F!
0=
1l
1m
1(
#300000
b11 $
b1 $
1G!
0F!
1=
1s
0l
0Z
1E
0m
0[
1%
1<
0(
01
#350000
b11 $
1F!
0=
0s
0E
0%
0<
#400000
b10 $
b0 $
0G!
0F!
1=
1Z
1[
11
#450000
b10 $
1F!
0=
1l
1m
1(
#500000
b11 $
b1 $
1G!
0F!
1=
1s
0l
0Z
1E
0m
0[
1%
1<
0(
01
#550000
b11 $
1F!
0=
0s
0E
0%
0<
#600000
b10 $
b0 $
0G!
0F!
1=
1Z
1[
11
#650000
b10 $
1F!
0=
1l
1m
1(
#700000
b11 $
b1 $
1G!
0F!
1=
1s
0l
0Z
1E
0m
0[
1%
1<
0(
01
#750000
b11 $
1F!
0=
0s
0E
0%
0<
#800000
b10 $
b0 $
0G!
0F!
1=
1Z
1[
11
#850000
b10 $
1F!
0=
1l
1m
1(
#900000
b11 $
b1 $
1G!
0F!
1=
1s
0l
0Z
1E
0m
0[
1%
1<
0(
01
#950000
b11 $
1F!
0=
0s
0E
0%
0<
