somador/simulation/qsim/somador.msim.vcd
$comment
	File created using the following command:
		vcd file somador.msim.vcd -direction
$end
$date
	Sat Nov 22 12:43:49 2025
$end
$version
	ModelSim Version 10.1d
$end
$timescale
	1ps
$end
$scope module somador_vlg_vec_tst $end
$var reg 1 ! a $end
$var reg 1 " b $end
$var reg 1 # ci $end
$var wire 1 $ co $end
$var wire 1 % s $end
$var wire 1 & sampler $end
$scope module i1 $end
$var wire 1 ' gnd $end
$var wire 1 ( vcc $end
$var wire 1 ) unknown $end
$var tri1 1 * devclrn $end
$var tri1 1 + devpor $end
$var tri1 1 , devoe $end
$var wire 1 - b~combout $end
$var wire 1 . a~combout $end
$var wire 1 / ci~combout $end
$var wire 1 0 co~0_combout $end
$var wire 1 1 s~0_combout $end
$upscope $end
$upscope $end
$enddefinitions $end
#0
$dumpvars
0!
0"
1#
0$
1%
x&
0'
1(
x)
1*
1+
1,
0-
0.
1/
00
11
$end
#50000
1!
1.
0&
01
10
0%
1$
#75000
1"
1-
1&
11
1%
#100000
0!
0.
0&
01
0%
#150000
0"
1!
0-
1.
1&
#200000
0!
0.
0&
11
00
1%
0$
#225000
1"
1-
1&
01
10
0%
1$
#250000
1!
1.
0&
11
1%
#300000
0"
0!
0-
0.
1&
00
0$
#350000
1!
1.
0&
01
10
0%
1$
#375000
1"
1-
1&
11
1%
#400000
0!
0.
0&
01
0%
#450000
0"
1!
0-
1.
1&
#500000
0!
0.
0&
11
00
1%
0$
#525000
1"
1-
1&
01
10
0%
1$
#550000
1!
1.
0&
11
1%
#600000
0"
0!
0-
0.
1&
00
0$
#650000
1!
1.
0&
01
10
0%
1$
#675000
1"
1-
1&
11
1%
#700000
0!
0.
0&
01
0%
#750000
0"
1!
0-
1.
1&
#800000
0!
0.
0&
11
00
1%
0$
#825000
1"
1-
1&
01
10
0%
1$
#850000
1!
1.
0&
11
1%
#900000
0"
0!
0-
0.
1&
00
0$
#950000
1!
1.
0&
01
10
0%
1$
#975000
1"
1-
1&
11
1%
